{
  "f1teams": [
    {
      "teamNaam": "Scuderia Ferrari",
      "meestSuccesCoureur": "Michael Schumacher",
      "winPercent": 0.23939,
      "eersteDeelname": {
        "year": 1950,
        "month": 5,
        "day": 21
      },
      "kampioenschappen": 16,
      "hoofdkwartier": "ITALY"
    },
    {
      "teamNaam": "Alfa Romeo Racing",
      "meestSuccesCoureur": "Juan Manuel Fangio",
      "winPercent": 0.07633,
      "eersteDeelname": {
        "year": 1950,
        "month": 5,
        "day": 13
      },
      "kampioenschappen": 0,
      "hoofdkwartier": "ITALY"
    },
    {
      "teamNaam": "Scuderia Alpha Tauri",
      "meestSuccesCoureur": "Sebastian Vettel",
      "winPercent": 0.00373,
      "eersteDeelname": {
        "year": 2006,
        "month": 3,
        "day": 12
      },
      "kampioenschappen": 0,
      "hoofdkwartier": "ITALY"
    },
    {
      "teamNaam": "Haas F1 Team",
      "meestSuccesCoureur": "Kevin Magnussen",
      "winPercent": 0.0,
      "eersteDeelname": {
        "year": 2016,
        "month": 3,
        "day": 20
      },
      "kampioenschappen": 0,
      "hoofdkwartier": "US"
    },
    {
      "teamNaam": "Mclaren F1 Team",
      "meestSuccesCoureur": "Ayrton Senna",
      "winPercent": 0.21089,
      "eersteDeelname": {
        "year": 1966,
        "month": 5,
        "day": 22
      },
      "kampioenschappen": 8,
      "hoofdkwartier": "UK"
    },
    {
      "teamNaam": "Racing Point F1 Team",
      "meestSuccesCoureur": "Sergio Perez",
      "winPercent": 0.0,
      "eersteDeelname": {
        "year": 2019,
        "month": 3,
        "day": 17
      },
      "kampioenschappen": 0,
      "hoofdkwartier": "UK"
    },
    {
      "teamNaam": "Mercedes-AMG Formula One Team",
      "meestSuccesCoureur": "Lewis Hamilton",
      "winPercent": 0.48571,
      "eersteDeelname": {
        "year": 1954,
        "month": 6,
        "day": 4
      },
      "kampioenschappen": 6,
      "hoofdkwartier": "UK"
    },
    {
      "teamNaam": "Red Bull Racing",
      "meestSuccesCoureur": "Sebastian Vettel",
      "winPercent": 0.21678,
      "eersteDeelname": {
        "year": 2005,
        "month": 3,
        "day": 6
      },
      "kampioenschappen": 4,
      "hoofdkwartier": "UK"
    },
    {
      "teamNaam": "Renault F1 Team",
      "meestSuccesCoureur": "Fernando Alonso",
      "winPercent": 0.09138,
      "eersteDeelname": {
        "year": 1977,
        "month": 7,
        "day": 16
      },
      "kampioenschappen": 2,
      "hoofdkwartier": "UK"
    },
    {
      "teamNaam": "Williams Racing",
      "meestSuccesCoureur": "Nigel Mansell",
      "winPercent": 0.15681,
      "eersteDeelname": {
        "year": 1977,
        "month": 5,
        "day": 8
      },
      "kampioenschappen": 9,
      "hoofdkwartier": "UK"
    },
    {
      "teamNaam": "Team Lotus",
      "meestSuccesCoureur": "Jim Clark",
      "winPercent": 0.15133,
      "eersteDeelname": {
        "year": 1958,
        "month": 5,
        "day": 18
      },
      "kampioenschappen": 7,
      "hoofdkwartier": "UK"
    },
    {
      "teamNaam": "Tyrrell Racing Organisation",
      "meestSuccesCoureur": "Jackie Stewart",
      "winPercent": 0.07127,
      "eersteDeelname": {
        "year": 1968,
        "month": 1,
        "day": 1
      },
      "kampioenschappen": 1,
      "hoofdkwartier": "UK"
    },
    {
      "teamNaam": "Brabham",
      "meestSuccesCoureur": "Nelson Piquet",
      "winPercent": 0.08883,
      "eersteDeelname": {
        "year": 1962,
        "month": 8,
        "day": 5
      },
      "kampioenschappen": 2,
      "hoofdkwartier": "UK"
    },
    {
      "teamNaam": "British Racing Motors",
      "meestSuccesCoureur": "Graham Hill",
      "winPercent": 0.08629,
      "eersteDeelname": {
        "year": 1951,
        "month": 7,
        "day": 14
      },
      "kampioenschappen": 1,
      "hoofdkwartier": "UK"
    },
    {
      "teamNaam": "Cooper Car Company",
      "meestSuccesCoureur": "Jack Brabham",
      "winPercent": 0.12403,
      "eersteDeelname": {
        "year": 1950,
        "month": 5,
        "day": 21
      },
      "kampioenschappen": 2,
      "hoofdkwartier": "UK"
    }
  ]
}